{
  "class_name": "Model",
  "config": {
    "name": "model_1",
    "layers": [
      {
        "name": "Trk_inputs",
        "class_name": "InputLayer",
        "config": {
          "batch_input_shape": [
            null,
            15,
            13
          ],
          "dtype": "float32",
          "sparse": false,
          "name": "Trk_inputs"
        },
        "inbound_nodes": []
      },
      {
        "name": "masking_1",
        "class_name": "Masking",
        "config": {
          "name": "masking_1",
          "trainable": true,
          "mask_value": 0.0
        },
        "inbound_nodes": [
          [
            [
              "Trk_inputs",
              0,
              0,
              {}
            ]
          ]
        ]
      },
      {
        "name": "LSTM",
        "class_name": "LSTM",
        "config": {
          "name": "LSTM",
          "trainable": true,
          "return_sequences": false,
          "return_state": false,
          "go_backwards": false,
          "stateful": false,
          "unroll": false,
          "units": 50,
          "activation": "tanh",
          "recurrent_activation": "hard_sigmoid",
          "use_bias": true,
          "kernel_initializer": {
            "class_name": "VarianceScaling",
            "config": {
              "scale": 1.0,
              "mode": "fan_avg",
              "distribution": "uniform",
              "seed": null
            }
          },
          "recurrent_initializer": {
            "class_name": "Orthogonal",
            "config": {
              "gain": 1.0,
              "seed": null
            }
          },
          "bias_initializer": {
            "class_name": "Zeros",
            "config": {}
          },
          "unit_forget_bias": true,
          "kernel_regularizer": null,
          "recurrent_regularizer": null,
          "bias_regularizer": null,
          "activity_regularizer": null,
          "kernel_constraint": null,
          "recurrent_constraint": null,
          "bias_constraint": null,
          "dropout": 0.0,
          "recurrent_dropout": 0.0,
          "implementation": 1
        },
        "inbound_nodes": [
          [
            [
              "masking_1",
              0,
              0,
              {}
            ]
          ]
        ]
      },
      {
        "name": "dropout_1",
        "class_name": "Dropout",
        "config": {
          "name": "dropout_1",
          "trainable": true,
          "rate": 0.2,
          "noise_shape": null,
          "seed": null
        },
        "inbound_nodes": [
          [
            [
              "LSTM",
              0,
              0,
              {}
            ]
          ]
        ]
      },
      {
        "name": "dense_1",
        "class_name": "Dense",
        "config": {
          "name": "dense_1",
          "trainable": true,
          "units": 10,
          "activation": "relu",
          "use_bias": true,
          "kernel_initializer": {
            "class_name": "VarianceScaling",
            "config": {
              "scale": 1.0,
              "mode": "fan_avg",
              "distribution": "uniform",
              "seed": null
            }
          },
          "bias_initializer": {
            "class_name": "Zeros",
            "config": {}
          },
          "kernel_regularizer": null,
          "bias_regularizer": null,
          "activity_regularizer": null,
          "kernel_constraint": null,
          "bias_constraint": null
        },
        "inbound_nodes": [
          [
            [
              "dropout_1",
              0,
              0,
              {}
            ]
          ]
        ]
      },
      {
        "name": "Jet_class",
        "class_name": "Dense",
        "config": {
          "name": "Jet_class",
          "trainable": true,
          "units": 4,
          "activation": "softmax",
          "use_bias": true,
          "kernel_initializer": {
            "class_name": "VarianceScaling",
            "config": {
              "scale": 1.0,
              "mode": "fan_avg",
              "distribution": "uniform",
              "seed": null
            }
          },
          "bias_initializer": {
            "class_name": "Zeros",
            "config": {}
          },
          "kernel_regularizer": null,
          "bias_regularizer": null,
          "activity_regularizer": null,
          "kernel_constraint": null,
          "bias_constraint": null
        },
        "inbound_nodes": [
          [
            [
              "dense_1",
              0,
              0,
              {}
            ]
          ]
        ]
      }
    ],
    "input_layers": [
      [
        "Trk_inputs",
        0,
        0
      ]
    ],
    "output_layers": [
      [
        "Jet_class",
        0,
        0
      ]
    ]
  },
  "keras_version": "2.2.4",
  "backend": "tensorflow"
}